{
	"map": {
		"tileset": "rebecka",
		"layers": [
			{ 
				"layer": 1,
				"tiles": [
					{"tile": 1, "x":5.0, "y":5.0, "fi":0.0},
					{"tile": 1, "x":7.0, "y":5.0, "fi":1.0},
					{"tile": 2, "x":6.0, "y":7.0, "fi":0.0}
				]
			}	
		]
		
	},

	"collision": [
		{
			"loop": true,
			"coords": [
				{"x":5, "y":5},
				{"x":10, "y":5},
				{"x":5, "y":3}
			]
		}
	]
}