{
	"filename": "rebecka.png",
	"tiles": [
		{"id": 1, "x": 60, "y": 0, "w": 201, "h": 303 },
		{"id": 2, "x": 468, "y": 104, "w": 403, "h": 119 },
		{"id": 3, "x": 0, "y": 323, "w": 403, "h": 134 },	
		{"id": 4, "x": 467, "y": 272, "w": 400, "h": 187 }
	]
}
